{
  "OutDir":"test_newplotter",
  "SaveAs":"pdf,png",
  "location":"/nfs/dust/cms/user/albrechs/UHH2/SubstructureValOutput/UL16/",
  "shapeNorm":"true",
  "samples":{
    "data":{
      "JetHTpreVFP":{
	"file":"uhh2.AnalysisModuleRunner.DATA.DATA_JetHT_2016ULF_106X_preVFP.root",
        "title":"DataPreVFP",
	"drawOpt":
	{
	  "color":1,
	  "lineStyle":1,
	  "markerStyle":4,
	  "legend":"JetHT Run16F preVFP"
	}
      },
      "JetHTpostVFP":{
	"file":"uhh2.AnalysisModuleRunner.DATA.DATA_JetHT_2016ULF_106X_postVFP.root",
        "title":"DataPostVFP",
	"drawOpt":
	{
	  "color":46,
	  "lineStyle":1,
	  "markerStyle":8,
	  "legend":"JetHT Run16F postVFP"
	}
      }
    },
    "background":{
      "qcdpreVFP":{
	"file":"uhh2.AnalysisModuleRunner.MC.MC_QCD_Flat_2016ULPreVFP_106X_preVFP.root",
	"title":"MCPreVFP",
	"drawOpt":
	{
	  "color":1,
	  "lineStyle":1,
	  "markerStyle":-1,
	  "legend":"QCD preVFP"
	}
      },
      "qcdpostVFP":{
	"file":"uhh2.AnalysisModuleRunner.MC.MC_QCD_Flat_2016ULPostVFP_106X_postVFP.root",
	"title":"MCPostVFP",
	"drawOpt":
	{
	  "color":46,
	  "lineStyle":1,
	  "markerStyle":-1,
	  "legend":"QCD postVFP"
	}
      }
    },
    "signal":{
    }
  },
  "ratios":["Data/MC(postVFP):JetHTpreVFP-qcdpreVFP","Data/MC(preVFP):JetHTpostVFP-qcdpostVFP"],
  "ratio_legends":"True",
  "stacking":[],
  "ratioYTitle":"Data/MC",
  "ratioDrawOptions":[
    {
      "errcolor":16,
      "color":1,
      "markerStyle":35
    },
    {
      "errcolor":47,
      "color":46,
      "markerStyle":35
    }
  ],
  "lumi":-1
}
